%YAML 1.1
%TAG !u! tag:unity3d.com,2011:
--- !u!1045 &1
EditorBuildSettings:
  m_ObjectHideFlags: 0
  serializedVersion: 2
  m_Scenes:
  - enabled: 1
    path: Assets/Scenes/Level 1.unity
    guid: 2cda990e2423bbf4892e6590ba056729
  - enabled: 1
    path: Assets/Scenes/Level 2.unity
    guid: 5607792c33b90c84d99574e5dbaff8d9
  - enabled: 1
    path: Assets/Scenes/Level 3.unity
    guid: 0d75e7f2b37d57a4b9c8dc6c7c5d9125
  m_configObjects: {}
